16 Boxes – EcoDrought Capstone
…
Load PASTA daily derived parameters: summarize as July-September site-specific means (across all years)

Code

pasta <- read_csv("C:/Users/jbaldock/OneDrive - DOI/Documents/USGS/EcoDrought/EcoDrought Working/EcoDrought-Analysis/Covariates/pasta_derived_parameters_daily.csv") %>%
  mutate(Month = month(date)) %>%
  rename(CalendarYear = year) %>%
  filter(Month %in% c(7:9)) %>%
  group_by(site_name) %>%
  summarize(meanRatio = mean(meanRatio, na.rm = TRUE),
            phaseLag = mean(phaseLag, na.rm = TRUE),
            amplitudeRatio = mean(amplitudeRatio, na.rm = TRUE))
pasta

# A tibble: 73 × 4
   site_name           meanRatio phaseLag amplitudeRatio
   <chr>                   <dbl>    <dbl>          <dbl>
 1 Avery Brook             0.891     2.31          0.264
 2 BigCreekLower           0.936     2.22          0.376
 3 BigCreekMiddle          0.840     1.29          0.411
 4 BigCreekUpper           0.664     2.31          0.179
 5 Buck Creek              0.699     1.19          0.353
 6 CoalCreekHeadwaters     0.670     2.11          0.209
 7 CoalCreekLower          0.843     2.91          0.503
 8 CoalCreekMiddle         0.692     1.27          0.223
 9 CoalCreekNorth          0.733     2.49          0.246
10 Crandall Creek          0.758     1.76          0.612
# ℹ 63 more rows
…
