15 Low Flow Variation – EcoDrought Capstone
…
  summarize(thresh_50_var = quantile(Yield_mm, probs = 0.50, na.rm = TRUE),
            thresh_45_var = quantile(Yield_mm, probs = 0.45, na.rm = TRUE),
            thresh_40_var = quantile(Yield_mm, probs = 0.40, na.rm = TRUE),
            thresh_35_var = quantile(Yield_mm, probs = 0.35, na.rm = TRUE),
            thresh_30_var = quantile(Yield_mm, probs = 0.30, na.rm = TRUE),
            thresh_25_var = quantile(Yield_mm, probs = 0.25, na.rm = TRUE),
            thresh_20_var = quantile(Yield_mm, probs = 0.20, na.rm = TRUE),
            thresh_15_var = quantile(Yield_mm, probs = 0.15, na.rm = TRUE),
            thresh_10_var = quantile(Yield_mm, probs = 0.10, na.rm = TRUE),
            thresh_05_var = quantile(Yield_mm, probs = 0.05, na.rm = TRUE),
            thresh_02_var = quantile(Yield_mm, probs = 0.02, na.rm = TRUE)) %>%
  ungroup()
(dat_clean_big_variable)

# A tibble: 2,928 × 16
   site_name      basin subbasin region doy_calendar thresh_50_var thresh_45_var
   <chr>          <chr> <chr>    <chr>         <dbl>         <dbl>         <dbl>
 1 Battle Run NW… Pine… Piney R… Shen              1         0.732         0.687
 2 Battle Run NW… Pine… Piney R… Shen              2         0.754         0.702
 3 Battle Run NW… Pine… Piney R… Shen              3         0.815         0.727
 4 Battle Run NW… Pine… Piney R… Shen              4         0.860         0.802
 5 Battle Run NW… Pine… Piney R… Shen              5         0.805         0.732
 6 Battle Run NW… Pine… Piney R… Shen              6         0.751         0.690
 7 Battle Run NW… Pine… Piney R… Shen              7         0.859         0.790
 8 Battle Run NW… Pine… Piney R… Shen              8         0.787         0.732
 9 Battle Run NW… Pine… Piney R… Shen              9         0.805         0.784
10 Battle Run NW… Pine… Piney R… Shen             10         0.820         0.732
# ℹ 2,918 more rows
# ℹ 9 more variables: thresh_40_var <dbl>, thresh_35_var <dbl>,
#   thresh_30_var <dbl>, thresh_25_var <dbl>, thresh_20_var <dbl>,
#   thresh_15_var <dbl>, thresh_10_var <dbl>, thresh_05_var <dbl>,
#   thresh_02_var <dbl>
…
  summarize(thresh_50_fix = quantile(z_Yield_mm, probs = 0.50, na.rm = TRUE),
            thresh_45_fix = quantile(z_Yield_mm, probs = 0.45, na.rm = TRUE),
            thresh_40_fix = quantile(z_Yield_mm, probs = 0.40, na.rm = TRUE),
            thresh_35_fix = quantile(z_Yield_mm, probs = 0.35, na.rm = TRUE),
            thresh_30_fix = quantile(z_Yield_mm, probs = 0.30, na.rm = TRUE),
            thresh_25_fix = quantile(z_Yield_mm, probs = 0.25, na.rm = TRUE),
            thresh_20_fix = quantile(z_Yield_mm, probs = 0.20, na.rm = TRUE),
            thresh_15_fix = quantile(z_Yield_mm, probs = 0.15, na.rm = TRUE),
            thresh_10_fix = quantile(z_Yield_mm, probs = 0.10, na.rm = TRUE),
            thresh_05_fix = quantile(z_Yield_mm, probs = 0.05, na.rm = TRUE),
            thresh_02_fix = quantile(z_Yield_mm, probs = 0.02, na.rm = TRUE)) %>%
  ungroup()
dat_clean_sub_thresh

# A tibble: 52 × 12
   site_name           thresh_50_fix thresh_45_fix thresh_40_fix thresh_35_fix
   <chr>                       <dbl>         <dbl>         <dbl>         <dbl>
 1 Avery Brook                -0.263        -0.308        -0.336        -0.348
 2 Big Creek NWIS             -0.380        -0.421        -0.474        -0.532
 3 BigCreekUpper              -0.435        -0.488        -0.532        -0.576
 4 CoalCreekHeadwaters        -0.345        -0.359        -0.368        -0.379
 5 CoalCreekLower             -0.378        -0.443        -0.507        -0.553
 6 CoalCreekNorth             -0.349        -0.429        -0.488        -0.548
 7 Crandall Creek             -0.347        -0.465        -0.526        -0.588
 8 CycloneCreekLower          -0.225        -0.313        -0.405        -0.457
 9 CycloneCreekUpper          -0.504        -0.555        -0.596        -0.617
10 Deep Creek                 -0.340        -0.396        -0.441        -0.488
# ℹ 42 more rows
# ℹ 7 more variables: thresh_30_fix <dbl>, thresh_25_fix <dbl>,
#   thresh_20_fix <dbl>, thresh_15_fix <dbl>, thresh_10_fix <dbl>,
#   thresh_05_fix <dbl>, thresh_02_fix <dbl>
…
         drought_fix = ifelse(z_Yield_mm <= thresh_50_fix & z_Yield_mm > thresh_45_fix, "q50",
                              ifelse(z_Yield_mm <= thresh_45_fix & z_Yield_mm > thresh_40_fix, "q45",
                                     ifelse(z_Yield_mm <= thresh_40_fix & z_Yield_mm > thresh_35_fix, "q40",
                                            ifelse(z_Yield_mm <= thresh_35_fix & z_Yield_mm > thresh_30_fix, "q35",
                                                   ifelse(z_Yield_mm <= thresh_30_fix & z_Yield_mm > thresh_25_fix, "q30",
                                                          ifelse(z_Yield_mm <= thresh_25_fix & z_Yield_mm > thresh_20_fix, "q25",
                                                                 ifelse(z_Yield_mm <= thresh_20_fix & z_Yield_mm > thresh_15_fix, "q20",
                                                                        ifelse(z_Yield_mm <= thresh_15_fix & z_Yield_mm > thresh_10_fix, "q15",
                                                                               ifelse(z_Yield_mm <= thresh_10_fix & z_Yield_mm > thresh_05_fix, "q10",
                                                                                      ifelse(z_Yield_mm <= thresh_05_fix & z_Yield_mm > thresh_02_fix, "q05",  
                                                                                             ifelse(z_Yield_mm <= thresh_02_fix, "q02", "none")))))))))))) %>%
  mutate(drought_fix = factor(ifelse(is.na(Yield_mm), NA, drought_fix), levels = mydroughtlevels)) 
dat_clean_sub

# A tibble: 16,731 × 31
   site_name   basin    subbasin region date       flow_mean tempc_mean Yield_mm
   <chr>       <chr>    <chr>    <chr>  <date>         <dbl>      <dbl>    <dbl>
 1 Avery Brook West Br… West Br… Mass   2020-07-01     1.34        16.0    0.446
 2 Avery Brook West Br… West Br… Mass   2020-07-02     0.963       16.1    0.321
 3 Avery Brook West Br… West Br… Mass   2020-07-03     2.40        17.3    0.800
 4 Avery Brook West Br… West Br… Mass   2020-07-04     3.31        17.4    1.10 
 5 Avery Brook West Br… West Br… Mass   2020-07-05     1.38        17.5    0.460
 6 Avery Brook West Br… West Br… Mass   2020-07-06     0.965       17.5    0.322
 7 Avery Brook West Br… West Br… Mass   2020-07-07     0.778       17.3    0.259
 8 Avery Brook West Br… West Br… Mass   2020-07-08     0.795       17.3    0.265
 9 Avery Brook West Br… West Br… Mass   2020-07-09     1.07        17.9    0.356
10 Avery Brook West Br… West Br… Mass   2020-07-10    14.3         19.4    4.76 
# ℹ 16,721 more rows
# ℹ 23 more variables: CalendarYear <dbl>, Month <dbl>, MonthName <chr>,
#   WaterYear <dbl>, DayofYear <dbl>, logYield <dbl>, designation <chr>,
#   doy_calendar <dbl>, z_Yield_mm <dbl>, thresh_50_fix <dbl>,
#   thresh_45_fix <dbl>, thresh_40_fix <dbl>, thresh_35_fix <dbl>,
#   thresh_30_fix <dbl>, thresh_25_fix <dbl>, thresh_20_fix <dbl>,
#   thresh_15_fix <dbl>, thresh_10_fix <dbl>, thresh_05_fix <dbl>, …
…
